564  composer create-project --prefer-dist laravel/laravel laravel-jwt
  565  cd laravel-api/
  566  php artisan make:model Models\\Category -m
  567  php artisan migrate



vagrant@homestead:~/code/laravel-api$ history 
    1  ping 172.25.104.77
    2  ping www.google.com
    3  tracert 172.25.116.10
    4  ping 172.25.116.10
    6  ping www.google.com
    9  ping www.google.com
   10  env | grep proxy
   11  ifconfig 
   12  ping 10.205.144.6
   13  ping 8.8.8.8
   14  exit
   15  ll
   16  cd ..
   17  ll
   18  wget www.google.com
   19  env | grep proxy
   20  exit
   21  wget www.google.com
   22  env | grep proxy
   23  exit
   24  ll
   25  wget www.google.com
   26  rm index.html 
   27  ll
   28  cd C
   29  cd Co
   30  ll
   31  cd code/
   32  ll
   33  composer global require "laravel/installer"
   34  composer create-project --prefer-dist laravel/laravel projeto
   35  exit
   36  vi /etc/hosts
   37  ll
   38  cd code/
   39  ll
   40  cd projeto/
   41  l
   42  ll
   43  exit
   44  find / -name pg_hba.conf
   45  find / -name pg_hba.conf >saida.txt
   46  vi saida.txt 
   47  vi /etc/postgresql/9.5/main/pg_hba.conf
   48  sudo vi /etc/postgresql/9.5/main/pg_hba.conf
   49  sudo service restart postgresql
   50  sudo service restart postgre
   51  sudo service restart postgres
   52  sudo /etc/init.d/postgresql restart
   53  cd code/projeto/
   54  php artisan make:auth
   55  php artisan 
   56  vi .env
   57  php artisan make:auth 
   58  cd ..
   59  ll
   60  history 
   61  composer create-project --prefer-dist laravel/laravel projeto
   62  wget 
   63  wget www.google.com
   64  ll
   65  rm -fr projeto 
   66  sudo rm -fr projeto 
   67  ll
   68  exit
   69  cd code/
   70  ll
   71  composer create-project --prefer-dist laravel/laravel projeto2
   72  ll
   73  composer create-project --prefer-dist laravel/laravel projeto
   74  cd ..
   75  ll
   76  chown vagrant:vagrant -R code/
   77  sudo chown vagrant:vagrant -R code/
   78  rm -rm code/
   79  rm -fr code/
   80  ext
   81  exit
   82  history 
   83  cd code/
   84  ll
   85  cd projeto/
   86  ll
   87  cd ..
   88  cd code/
   89  rm -fr projeto/
   90  ll
   91  history 
   92  composer create-project --prefer-dist laravel/laravel projeto
   93  ll
   94  cd projeto/
   95  ll
   96  exit
   97  vi /etc/postgresql/9.5/main/pg_hba.conf 
   98  sudo vi /etc/postgresql/9.5/main/pg_hba.conf 
   99  cd code/projeto/
  100  ll
  101  cd ..
  102  ll
  103  cd projeto/
  104  l
  105  ll
  106  vi .env
  107  php artisan make:auth
  108  ll
  109  chmod 777 -R storage
  110  cd storage/logs/
  111  ll
  112  vi laravel.log 
  113  psql
  114  su postgres
  115  php artisan db:migrate
  116  cd ..
  117  php artisan db:migrate
  118  php artisan migrate
  119  exit
  120  cd code/
  121  ll
  122  scp -r projeto/ 08104867@192.168.10.1:/home/CLTIRG/08104867/Downloads/homestead/code
  123  ll
  124  cd projeto/
  125  vi .env
  126  ll
  127  exit
  128  cd code/projeto/
  129  ll
  130  vi .env
  131  exit
  132  cd code/
  133  ll
  134  cd projeto/
  135  ll
  136  exit
  137  cd code/projeto/
  138  vi .env
  139  cd ..
  140  cd acesso/
  141  ll
  142  rm -fr teste/
  143  ll
  144  vi /etc/inputrc 
  145  sudo vi /etc/inputrc 
  146  history 
  147  ;q
  148  :q
  149  cd ..
  150  composer create-project --prefer-dist laravel/laravel acesso
  151  cd acesso/
  152  ll
  153  php artisan make:auth
  154  php artisan migrate
  155  ifconfig 
  156  php artisan --version
  157  cd resources/lang/
  158  git
  159  git --help | grep global
  160  git --help 
  161  git config --help
  162  git config --global username "Carlos Eduardo Lucas"
  163  git config --global user.name "Carlos Eduardo Lucas"
  164  git config --global user.mail "carlosedulucas@hotmail.com"
  165  git add -all
  166  cd ..
  167  git add -all
  168  ll
  169  git add --all
  170  git commit -m 'init'
  171  git remote add origin https://carlosedulucas@bitbucket.org/carlosedulucas/cursoudemy.git
  172  git push -u origin master
  173  history 
  174  php artisan make:auth
  175  php artisan migrate
  176  php artisan db:
  177  php artisan db
  178  php artisan 
  179  php artisan migrate:reset
  180  php artisan migrate
  181  cd database/
  182  vi database.sqlite 
  183  cd ..
  184  git add --all
  185  git commit -m 'final da aula 1'
  186  sudo su
  187  history  | grep user.name
  188  git config --global user.name "Carlos Eduardo Lucas"
  189  history  | grep user.em
  190  history  | grep user.ma
  191  git commit -m 'final da aula 1'
  192  git push -u origin master
  193  git push -u origin 
  194  git push -u origin develop 
  195  git commit -m 'final da aula 1 - pronot'
  196  git push -u origin develop 
  197  git all --add
  198  git add --all
  199  git commit -m 'final da aula 1 - pronto'
  200  git push -u origin develop 
  201  cd code/acesso/database/
  202  ll
  203  chmod 777 database.sqlite 
  204  cd ..
  205  php artisan migrate:reset
  206  php artisan migrate
  207  php artisan migrate:reset
  208  cd database/
  209  ll
  210  vi database.sqlite 
  211  cd migrations/
  212  ll
  213  cd ..
  214  php artisan migrate:reset
  215  cd ..
  216  php artisan migrate:reset
  217  php artisan migrate
  218  php artisan 
  219  php artisan migrate:fresh
  220  cd database/
  221  ll
  222  rm -fr database.sqlite 
  223  cd ..
  224  php artisan migrate:fresh
  225  vi database/database.sqlite 
  226  ll database/database.sqlite 
  227  git flow feature start aula 03
  228  exit
  229  cd code/acesso/
  230  ll
  231  npm run watch-poll
  232  npm update
  233  npm install
  234  npm run watch-poll
  235  php artisan migrate
  236  npm run watch-poll
  237  php artisan make:controller UsuariosController --resource
  238  npm run watch-poll
  239  php artisan make:controller Admin/UsuariosController --resource
  240  npm run watch-poll
  241  exit
  242  cd code/acesso/
  243  php artisan make:migration add_autor_table_users --table=users
  244  php artisan migrate:status
  245  php artisan migrate
  246  php artisan migrate:status
  247  php artisan migrate
  248  php artisan migrate:refresh
  249  php artisan migrate
  250  php artisan 
  251  php artisan migrate:rollback
  252  php artisan migrate
  253  php artisan make:controller Admin/AutoresController --resource
  254  php artisan make:migration add_users_id_table_artigos --table=artigos
  255  php artisan migrate
  256  php artisan migrate:status
  257  date
  258  php artisan migrate:status
  259  exit
  260  cd code/acesso/
  261  npm run watch
  262  exit
  263  cd code/acesso/
  264  npm install vue-ckeditor2 --save
  265  npm run watch
  266  php artisan migrate:
  267  php artisan make:migration modify_data_artigos_table --table=artigos
  268  php artisan migrate
  269  composer require doctrine/dbal
  270  php artisan migrate
  271  php artisan migrate:
  272  php artisan migrate:rollback
  273  php artisan migrate
  274  history 
  275  npm run watch-poll
  276  exit
  277  cd code/acesso/
  278  ll
  279  npm run watch-poll
  280  php artisan make:migration add_admin_user --tabble=users
  281  php artisan make:migration add_admin_user --table=users
  282  php artisan migrate
  283  npm run watch-poll
  284  exit
  285  cd code/acesso/
  286  npm run watch-poll
  287  exit
  288  cd code/controleAcesso/
  289  ll
  290  cd ..
  291  composer create-project --prefer-dist laravel/laravel controleAcesso
  292  ll
  293  cd controleAcesso/
  294  ll
  295  cd ..
  296  exit
  297  cd /etc/nginx/conf.d/
  298  ll
  299  cd..
  300  cd ..
  301  ll
  302  cd sites-available/
  303  ll
  304  vi acesso.app 
  305  cd ..
  306  cd sites-enabled/
  307  ll
  308  exit
  309  cd code/controleAcesso/
  310  php artisan vendor:publish
  311  composer update
  312  php artisan vendor:publish
  313  composer update
  314  php artisan vendor:publish
  315  composer update
  316  php artisan vendor:publish
  317  php artisan make:auth
  318  php artisan vendor:publish
  319  php artisan entrust:migration
  320  php artisan vendor:publish
  321  php artisan entrust:migration
  322  php artisan vendor:publish
  323  php artisan entrust:migration
  324  php artisan migrate
  325  exit
  326  history 
  327  cd code/controleAcesso/
  328  composer dump-autoload
  329  EXIT
  330  exit
  331  cd code/
  332  ll
  333  cd acesso/
  334  l
  335  ll
  336  npm run watch-poll
  337  ll
  338  cd ..
  339  ll
  340  cd controleAcesso/
  341  npm run watch-poll
  342  npm run watch
  343  cd ..
  344  ll
  345  rm -fr controleAcesso/
  346  ll
  347  cd controleAcesso/
  348  ll
  349  cd ,,
  350  cd ..
  351  history 
  352  composer create-project --prefer-dist laravel/laravel controleAcesso
  353  cd controleAcesso/
  354  composer require jeroennoten/laravel-adminlte
  355  php artisan vendor:publish --provider="JeroenNoten\LaravelAdminLte\ServiceProvider" --tag=assets
  356  php artisan make:adminlte
  357  php artisan vendor:publish --provider="JeroenNoten\LaravelAdminLte\ServiceProvider" --tag=config
  358  php artisan migrate
  359  php artisan migrate -v
  360  php artisan make:migrate
  361  php artisan 
  362  php artisan migrate:install
  363  php artisan migrate --force
  364  psql -U homestead -h localhost
  365  php artisan migrate 
  366  psql -U homestead -h localhost
  367  php artisan migrate 
  368  psql -U homestead -h localhost
  369  php artisan migrate 
  370  composer require "santigarcor/laratrust:5.0.*"
  371  php artisan vendor:publish --provider="JeroenNoten\LaravelAdminLte\ServiceProvider" --tag=translations
  372  php artisan vendor:publish --provider="JeroenNoten\LaravelAdminLte\ServiceProvider" --tag=views
  373  php artisan vendor:publish --tag="laratrust"
  374  php artisan laratrust : setup
  375  php artisan laratrust:setup
  376  então não se esqueça de correr:
  377  Importante
  378  Se você fez as etapas acima, você terminou com a configuração, se não, leia e siga todo o processo de configuração
  379  © Copyright 2017, Santiago Garcia. Revisão f271569f .
  380  Construído com Sphinx usando um tema fornecido por Read the Docs .
  381  Leia o Docs v: 5.0
  382  Texto original em Inglês:
  383  composer dump --autoload
  384  composer dump -autoload
  385  composer dump-autoload
  386  php artisan laratrust:migration
  387  php artisan migrate
  388  composer dump-autoload
  389  php artisan laratrust:seeder
  390  composer dump-autoload
  391  php artisan make:controller OMController --resource
  392  php artisan make:controller OMController --resource -m
  393  php artisan make:controller OMController --resource --model=OM
  394  php artisan 
  395  php artisan help migrate
  396  php artisan help migrate create_OM_table
  397  php artisan make:migration create_OMs_table --table=oms
  398  php artisan make:seeder OMsTableSeeder
  399  php artisan migrate
  400  php tinker
  401  php artisan 
  402  php artisan tinker
  403  php artisan make:migration add_sigla_indicativo_to_OMs_table --table=oms
  404  php artisan migrate
  405  php artisan migrate help
  406  php artisan help migrate 
  407  php artisan 
  408  php artisan help migrate:rollback
  409  php artisan seed
  410  php artisan db:seed
  411  npm install vuelidate --save
  412  npm run watch-poll
  413  npm run watch
  414  vi /home/vagrant/.npm/_logs/2018-02-27T15_16_49_232Z-debug.log
  415  npm run dev
  416  npm install cross-env
  417  npm run dev
  418  npm run watch-poll
  419  npm install
  420  sudo su
  421  npm run watch-poll
  422  sudo su
  423  npm run dev
  424  npm run watch-poll
  425  npm install vue --save
  426  npm run watch-poll
  427  npm run dev
  428  npm run watch-poll
  429  npm unistall vuelidate --save
  430  npm uninstall vuelidate --save
  431  npm install vee-validate --save
  432  npm run watch-poll
  433  exit
  434  cd code/controleAcesso/
  435  npm run watch-poll
  436  cd ..
  437  ll
  438  exit
  439  cd code/
  440  cd controleAcesso/
  441  npm run watch-poll
  442  exit
  443  cd code/controleAcesso/
  444  npm run watch-poll
  445  cd code/controleAcesso/
  446  npm run watch-poll
  447  npm install jquery.inputmask
  448  npm run watch-poll
  449  exit
  450  history 
  451  cd code/controleAcesso/
  452  npm run watch-poll
  453  php artisan routes::lits
  454  php artisan routes:lits
  455  php artisan routes:lists
  456  php artisan routes
  457  php artisan route:list
  458  npm run watch-poll
  459  php artisan route:list
  460  npm run watch-poll
  461  php artisan route:list
  462  npm run watch-poll
  463  npm run dev
  464  npm run watch-poll
  465  npm run dev
  466  npm run watch-poll
  467  exit
  468  php artisan migrate
  469  history 
  470  cd code/etivue/webservice-laravel-5-5/
  471  php artisan migrate
  472  composer update
  473  php artisan migrate
  474  cd ..
  475  cd acesso/
  476  l
  477  ll
  478  php artisan migrate
  479  cd ..
  480  cd controleAcesso/
  481  php artisan migrate
  482  cd ..
  483  cd projeto/
  484  ll
  485  php artisan migrate
  486  cd database/
  487  l
  488  ll
  489  cd seeds/
  490  ll
  491  cd ..
  492  cd controleAcesso/
  493  ll
  494  cd database/
  495  ll
  496  cd seeds/
  497  ll
  498  vi OMsTableSeeder.php 
  499  cd ..c
  500  d ..
  501  cd ..
  502  cd etivue/webservice-laravel-5-5/
  503  php artisan make:seeder ProductsTableSeeder
  504  vi ../../controleAcesso/database/seeds/OMsTableSeeder.php 
  505  php artisan db:seed
  506  cd ..
  507  cd webservice-laravel-5-5/
  508  php artisan db:seed
  509  exit
  510  cd code/etivue/
  511  ll
  512  cd webservice-laravel-5-5/
  513  ll
  514  history 
  515  ll
  516  npm run watch-poll
  517  cd ..
  518  ll
  519  cd ..
  520  ll
  521  cd projeto/
  522  ll
  523  cd ..
  524  ll
  525  cd controleAcesso/
  526  ll
  527  cd ..
  528  cd etivue/
  529  ll
  530  ls -lha
  531  cd tasks
  532  su adminlinux
  533  ll
  534  exit
  535  history 
  536  exit
  537  ll
  538  history 
  539  cd code/
  540  composer create-project --prefer-dist laravel/laravel laravel-jwt
  541  ll
  542  service status httpd
  543  service status http
  544  service status ngnix
  545  systemctl status http
  546  systemctl status httpd
  547  systemctl status nginx
  548  ifconfig 
  549  exit
  550  q
  551  exit
  552  cd code/
  553  composer create-project --prefer-dist laravel/laravel laravel-api
  554  exit
  555  cd code/laravel-api/
  556  ll
  557  mkdir teste2
  558  ll
  559  cd ..
  560  composer create-project --prefer-dist laravel/laravel laravel-api
  561  cd laravel-jwt/
  562  ll
  563  cd ..
  564  composer create-project --prefer-dist laravel/laravel laravel-jwt
  565  cd laravel-api/
  566  php artisan make:model Models\\Category -m
  567  php artisan migrate
  568  history 
  569  php artisan make:controller CategoryController --resource
  570  php artisan make:controller Api\\CategoryController
  571  php artisan migrate
  572  php artisan migrate --force
  573  php artisan migrate:rollback
  574  php artisan migrate
  575  LL
  576  ll
  577  php artisan make:request StoreUpdateCategoryFormRequest
  578  php artisan make:model Models\\Product -m
  579  php artisan migrate
  580  php artisan make:seeder UsersTableSeeder
  581  php artisan db:seeder
  582  php artisan db:seed
  583  php artisan make:factory ProductFactory
  584  php artisan make:seeder ProductTableSeeder
  585  php artisan db-seed --class=productTableSeeder
  586  php artisan db:seed --class=productTableSeeder
  587  php artisan migrate
  588  php artisan make:seeder ProductsTableSeeder
  589  php artisan db:seed --class=productsTableSeeder
  590* 
  591  php artisan migrate:refresh --seed
  592  php artisan make:seeder CategoriesSeederTable
  593  php artisan make:seeder CategoriesTableSeeder
  594  php artisan migrate:refresh --seed
  595  php artisan make:controller Api\\ProductController
  596  php artisan make:controller Api\\ProductController --resource
  597  php artisan make:request StoreUpdateProductFormRequest
  598  php artisan storage:link
  599  composer require tymon/jwt-auth
  600  composer require tymon/jwt-auth --prefer-source
  601  php artisan vendor:publish --provider="Tymon\JWTAuth\Providers\JWTAuthServiceProvider
"
  602  php artisan vendor:publish --provider="Tymon\JWTAuth\Providers\JWTAuthServiceProvider"
  603  php artisan jwt:generate
  604  php artisan jwt:secret
  605  composer require tymon/jwt-auth:dev-develop --prefer-source
  606  php artisan vendor:publish --provider="Tymon\JWTAuth\Providers\JWTAuthServiceProvider"
  607  composer update
  608  composer require tymon/jwt-auth:dev-develop --prefer-source
  609  php artisan vendor:publish --provider="Tymon\JWTAuth\Providers\JWTAuthServiceProvider"
  610  php artisan vendor:publish --provider="Tymon\JWTAuth\Providers\LaravelServiceProvider"
  611  php artisan jwt:secret
  612  php artisan make:controler Auth\\AuthApiController
  613  php artisan make:controller Auth\\AuthApiController
  614  history 





------------
php artisan make:model Models/Racacor -a
php artisan migrate
php artisan db:seed --class=RacacorsTableSeeder
php artisan migrate:rollback
php artisan migrate
php artisan jwt:secret
